^E:\RACE_GAME_TUT\TRUNK\GAMETUTORIAL\RACEGAME\BIN_ATI\CLOGOSTATE.OBJ|E:\RACE_GAME_TUT\TRUNK\GAMETUTORIAL\RACEGAME\BIN_ATI\CRACEGAME.OBJ|E:\RACE_GAME_TUT\TRUNK\GAMETUTORIAL\RACEGAME\BIN_ATI\MAINGAME.OBJ
E:\RACE_GAME_TUT\TRUNK\GAMETUTORIAL\BIN_ATI\RACEGAME.ILK
E:\RACE_GAME_TUT\TRUNK\GAMETUTORIAL\BIN_ATI\RACEGAME.EXE
E:\RACE_GAME_TUT\TRUNK\GAMETUTORIAL\BIN_ATI\RACEGAME.PDB
