^E:\RACE_GAME_TUT\TRUNK\GAMETOTORIAL_V2\PROJECTGAME\WIN32\BIN_GAME\CALAUDIODRIVER.OBJ|E:\RACE_GAME_TUT\TRUNK\GAMETOTORIAL_V2\PROJECTGAME\WIN32\BIN_GAME\CAUDIODRIVER.OBJ|E:\RACE_GAME_TUT\TRUNK\GAMETOTORIAL_V2\PROJECTGAME\WIN32\BIN_GAME\CAUDIOPLAYER.OBJ|E:\RACE_GAME_TUT\TRUNK\GAMETOTORIAL_V2\PROJECTGAME\WIN32\BIN_GAME\CCONTROLLEREVENTMANAGER.OBJ|E:\RACE_GAME_TUT\TRUNK\GAMETOTORIAL_V2\PROJECTGAME\WIN32\BIN_GAME\CDEVICE.OBJ|E:\RACE_GAME_TUT\TRUNK\GAMETOTORIAL_V2\PROJECTGAME\WIN32\BIN_GAME\CFPSCONTROLLER.OBJ|E:\RACE_GAME_TUT\TRUNK\GAMETOTORIAL_V2\PROJECTGAME\WIN32\BIN_GAME\CGAME.OBJ|E:\RACE_GAME_TUT\TRUNK\GAMETOTORIAL_V2\PROJECTGAME\WIN32\BIN_GAME\CLOGOSTATE.OBJ|E:\RACE_GAME_TUT\TRUNK\GAMETOTORIAL_V2\PROJECTGAME\WIN32\BIN_GAME\CMATH.OBJ|E:\RACE_GAME_TUT\TRUNK\GAMETOTORIAL_V2\PROJECTGAME\WIN32\BIN_GAME\CRACEGAME.OBJ|E:\RACE_GAME_TUT\TRUNK\GAMETOTORIAL_V2\PROJECTGAME\WIN32\BIN_GAME\CSHADER.OBJ|E:\RACE_GAME_TUT\TRUNK\GAMETOTORIAL_V2\PROJECTGAME\WIN32\BIN_GAME\CSTATE.OBJ|E:\RACE_GAME_TUT\TRUNK\GAMETOTORIAL_V2\PROJECTGAME\WIN32\BIN_GAME\CSTATEMANAGEMENT.OBJ|E:\RACE_GAME_TUT\TRUNK\GAMETOTORIAL_V2\PROJECTGAME\WIN32\BIN_GAME\CVIEWCONTROLLER.OBJ|E:\RACE_GAME_TUT\TRUNK\GAMETOTORIAL_V2\PROJECTGAME\WIN32\BIN_GAME\CVORBISSTREAMPORTING.OBJ|E:\RACE_GAME_TUT\TRUNK\GAMETOTORIAL_V2\PROJECTGAME\WIN32\BIN_GAME\CVSVIEW.OBJ|E:\RACE_GAME_TUT\TRUNK\GAMETOTORIAL_V2\PROJECTGAME\WIN32\BIN_GAME\MAINGAME.OBJ|E:\RACE_GAME_TUT\TRUNK\GAMETOTORIAL_V2\PROJECTGAME\WIN32\BIN_GAME\TEXTURE.OBJ|E:\RACE_GAME_TUT\TRUNK\GAMETOTORIAL_V2\PROJECTGAME\WIN32\BIN_GAME\TGA.OBJ
/OUT:"E:\RACE_GAME_TUT\TRUNK\GAMETOTORIAL_V2\PROJECTGAME\WIN32\..\..\BIN_GAME\RACEGAME.EXE" /INCREMENTAL /NOLOGO /LIBPATH:E:\Race_Game_Tut\trunk\GameTotorial_v2\ProjectGame\win32\..\..\Libs\vorbis\ /LIBPATH:E:\Race_Game_Tut\trunk\GameTotorial_v2\ProjectGame\win32\..\..\Libs\oal\ /LIBPATH:E:\Race_Game_Tut\trunk\GameTotorial_v2\ProjectGame\win32\..\..\Libs\OGLES20\ libEGL.lib libGLESv2.lib kernel32.lib user32.lib gdi32.lib winspool.lib comdlg32.lib advapi32.lib shell32.lib ole32.lib oleaut32.lib uuid.lib odbc32.lib odbccp32.lib /MANIFEST /MANIFESTUAC:"level='asInvoker' uiAccess='false'" /manifest:embed /DEBUG /PDB:"E:\RACE_GAME_TUT\TRUNK\GAMETOTORIAL_V2\PROJECTGAME\WIN32\..\..\BIN_GAME\RACEGAME.PDB" /TLBID:1 /DYNAMICBASE /NXCOMPAT /IMPLIB:"E:\RACE_GAME_TUT\TRUNK\GAMETOTORIAL_V2\PROJECTGAME\WIN32\..\..\BIN_GAME\RACEGAME.LIB" /MACHINE:X86 BIN_GAME\CALAUDIODRIVER.OBJBIN_GAME\CAUDIODRIVER.OBJBIN_GAME\CAUDIOPLAYER.OBJBIN_GAME\CCONTROLLEREVENTMANAGER.OBJBIN_GAME\CDEVICE.OBJBIN_GAME\CFPSCONTROLLER.OBJBIN_GAME\CGAME.OBJBIN_GAME\CLOGOSTATE.OBJBIN_GAME\CMATH.OBJBIN_GAME\CRACEGAME.OBJBIN_GAME\CSHADER.OBJBIN_GAME\CSTATE.OBJBIN_GAME\CSTATEMANAGEMENT.OBJBIN_GAME\CVIEWCONTROLLER.OBJBIN_GAME\CVORBISSTREAMPORTING.OBJBIN_GAME\CVSVIEW.OBJBIN_GAME\MAINGAME.OBJBIN_GAME\TEXTURE.OBJBIN_GAME\TGA.OBJ
^E:\RACE_GAME_TUT\TRUNK\GAMETUTORIAL_V2\PROJECTGAME\WIN32\BIN_GAME\CALAUDIODRIVER.OBJ|E:\RACE_GAME_TUT\TRUNK\GAMETUTORIAL_V2\PROJECTGAME\WIN32\BIN_GAME\CAUDIODRIVER.OBJ|E:\RACE_GAME_TUT\TRUNK\GAMETUTORIAL_V2\PROJECTGAME\WIN32\BIN_GAME\CAUDIOPLAYER.OBJ|E:\RACE_GAME_TUT\TRUNK\GAMETUTORIAL_V2\PROJECTGAME\WIN32\BIN_GAME\CCONTROLLEREVENTMANAGER.OBJ|E:\RACE_GAME_TUT\TRUNK\GAMETUTORIAL_V2\PROJECTGAME\WIN32\BIN_GAME\CDEVICE.OBJ|E:\RACE_GAME_TUT\TRUNK\GAMETUTORIAL_V2\PROJECTGAME\WIN32\BIN_GAME\CFPSCONTROLLER.OBJ|E:\RACE_GAME_TUT\TRUNK\GAMETUTORIAL_V2\PROJECTGAME\WIN32\BIN_GAME\CGAME.OBJ|E:\RACE_GAME_TUT\TRUNK\GAMETUTORIAL_V2\PROJECTGAME\WIN32\BIN_GAME\CLOGOSTATE.OBJ|E:\RACE_GAME_TUT\TRUNK\GAMETUTORIAL_V2\PROJECTGAME\WIN32\BIN_GAME\CMATH.OBJ|E:\RACE_GAME_TUT\TRUNK\GAMETUTORIAL_V2\PROJECTGAME\WIN32\BIN_GAME\CRACEGAME.OBJ|E:\RACE_GAME_TUT\TRUNK\GAMETUTORIAL_V2\PROJECTGAME\WIN32\BIN_GAME\CSHADER.OBJ|E:\RACE_GAME_TUT\TRUNK\GAMETUTORIAL_V2\PROJECTGAME\WIN32\BIN_GAME\CSTATE.OBJ|E:\RACE_GAME_TUT\TRUNK\GAMETUTORIAL_V2\PROJECTGAME\WIN32\BIN_GAME\CSTATEMANAGEMENT.OBJ|E:\RACE_GAME_TUT\TRUNK\GAMETUTORIAL_V2\PROJECTGAME\WIN32\BIN_GAME\CVIEWCONTROLLER.OBJ|E:\RACE_GAME_TUT\TRUNK\GAMETUTORIAL_V2\PROJECTGAME\WIN32\BIN_GAME\CVORBISSTREAMPORTING.OBJ|E:\RACE_GAME_TUT\TRUNK\GAMETUTORIAL_V2\PROJECTGAME\WIN32\BIN_GAME\CVSVIEW.OBJ|E:\RACE_GAME_TUT\TRUNK\GAMETUTORIAL_V2\PROJECTGAME\WIN32\BIN_GAME\MAINGAME.OBJ|E:\RACE_GAME_TUT\TRUNK\GAMETUTORIAL_V2\PROJECTGAME\WIN32\BIN_GAME\TEXTURE.OBJ|E:\RACE_GAME_TUT\TRUNK\GAMETUTORIAL_V2\PROJECTGAME\WIN32\BIN_GAME\TGA.OBJ
/OUT:"E:\RACE_GAME_TUT\TRUNK\GAMETUTORIAL_V2\PROJECTGAME\WIN32\..\..\BIN_GAME\RACEGAME.EXE" /INCREMENTAL /NOLOGO /LIBPATH:E:\Race_Game_Tut\trunk\GameTutorial_v2\ProjectGame\win32\..\..\Libs\vorbis\ /LIBPATH:E:\Race_Game_Tut\trunk\GameTutorial_v2\ProjectGame\win32\..\..\Libs\oal\ /LIBPATH:E:\Race_Game_Tut\trunk\GameTutorial_v2\ProjectGame\win32\..\..\Libs\OGLES20\ libEGL.lib libGLESv2.lib kernel32.lib user32.lib gdi32.lib winspool.lib comdlg32.lib advapi32.lib shell32.lib ole32.lib oleaut32.lib uuid.lib odbc32.lib odbccp32.lib /MANIFEST /MANIFESTUAC:"level='asInvoker' uiAccess='false'" /manifest:embed /DEBUG /PDB:"E:\RACE_GAME_TUT\TRUNK\GAMETUTORIAL_V2\PROJECTGAME\WIN32\..\..\BIN_GAME\RACEGAME.PDB" /TLBID:1 /DYNAMICBASE /NXCOMPAT /IMPLIB:"E:\RACE_GAME_TUT\TRUNK\GAMETUTORIAL_V2\PROJECTGAME\WIN32\..\..\BIN_GAME\RACEGAME.LIB" /MACHINE:X86 BIN_GAME\CALAUDIODRIVER.OBJBIN_GAME\CAUDIODRIVER.OBJBIN_GAME\CAUDIOPLAYER.OBJBIN_GAME\CCONTROLLEREVENTMANAGER.OBJBIN_GAME\CDEVICE.OBJBIN_GAME\CFPSCONTROLLER.OBJBIN_GAME\CGAME.OBJBIN_GAME\CLOGOSTATE.OBJBIN_GAME\CMATH.OBJBIN_GAME\CRACEGAME.OBJBIN_GAME\CSHADER.OBJBIN_GAME\CSTATE.OBJBIN_GAME\CSTATEMANAGEMENT.OBJBIN_GAME\CVIEWCONTROLLER.OBJBIN_GAME\CVORBISSTREAMPORTING.OBJBIN_GAME\CVSVIEW.OBJBIN_GAME\MAINGAME.OBJBIN_GAME\TEXTURE.OBJBIN_GAME\TGA.OBJ
